<svg width="23" height="17" viewBox="0 0 23 17" fill="none" xmlns="http://www.w3.org/2000/svg">
<g opacity="0.5">
<mask id="path-1-inside-1" fill="white">
<path d="M20.9997 6.71969V1.78478C20.9997 1.31142 20.8001 0.85746 20.4448 0.522749C20.0895 0.188038 19.6077 0 19.1053 0H1.89442C1.39199 0 0.910137 0.188038 0.554864 0.522749C0.19959 0.85746 0 1.31142 0 1.78478V15.2152C0 15.6886 0.19959 16.1425 0.554864 16.4773C0.910137 16.812 1.39199 17 1.89442 17H19.1337C19.6361 17 20.118 16.812 20.4732 16.4773C20.8285 16.1425 21.0281 15.6886 21.0281 15.2152V12.0562C21.3606 12.0294 21.6705 11.8863 21.8966 11.6551C22.1228 11.4239 22.2488 11.1212 22.25 10.8068V7.97795C22.2507 7.6577 22.1217 7.34925 21.8894 7.11546C21.6571 6.88166 21.3389 6.74013 20.9997 6.71969ZM1.89442 0.892389H19.1337C19.3849 0.892389 19.6258 0.986408 19.8035 1.15376C19.9811 1.32112 20.0809 1.5481 20.0809 1.78478V2.91725C19.7942 2.75754 19.4668 2.67426 19.1337 2.67631H1.89442C1.56134 2.67426 1.23393 2.75754 0.947211 2.91725V1.78478C0.947211 1.5481 1.04701 1.32112 1.22464 1.15376C1.40228 0.986408 1.64321 0.892389 1.89442 0.892389ZM19.1337 16.063H1.89442C1.64321 16.063 1.40228 15.969 1.22464 15.8016C1.04701 15.6343 0.947211 15.4073 0.947211 15.1706V4.41647C0.947211 4.17979 1.04701 3.95281 1.22464 3.78545C1.40228 3.6181 1.64321 3.52408 1.89442 3.52408H19.1337C19.3849 3.52408 19.6258 3.6181 19.8035 3.78545C19.9811 3.95281 20.0809 4.17979 20.0809 4.41647V6.71076H15.5911C14.8375 6.71076 14.1147 6.99282 13.5818 7.49489C13.0489 7.99695 12.7495 8.6779 12.7495 9.38793C12.7495 10.098 13.0489 10.7789 13.5818 11.281C14.1147 11.783 14.8375 12.0651 15.5911 12.0651H20.0525V15.2152C20.0406 15.4395 19.9395 15.6514 19.7692 15.8085C19.5989 15.9657 19.372 16.0565 19.1337 16.063ZM21.2744 10.7801C21.2744 10.8795 21.2325 10.9748 21.1578 11.0451C21.0832 11.1154 20.9821 11.1549 20.8765 11.1549H15.5911C15.0887 11.1549 14.6068 10.9668 14.2515 10.6321C13.8963 10.2974 13.6967 9.84343 13.6967 9.37008C13.6967 8.89673 13.8963 8.44276 14.2515 8.10805C14.6068 7.77334 15.0887 7.5853 15.5911 7.5853H20.8387C20.9442 7.5853 21.0454 7.62479 21.12 7.69508C21.1946 7.76537 21.2365 7.8607 21.2365 7.96011L21.2744 10.7801Z"/>
</mask>
<path d="M20.9997 6.71969V1.78478C20.9997 1.31142 20.8001 0.85746 20.4448 0.522749C20.0895 0.188038 19.6077 0 19.1053 0H1.89442C1.39199 0 0.910137 0.188038 0.554864 0.522749C0.19959 0.85746 0 1.31142 0 1.78478V15.2152C0 15.6886 0.19959 16.1425 0.554864 16.4773C0.910137 16.812 1.39199 17 1.89442 17H19.1337C19.6361 17 20.118 16.812 20.4732 16.4773C20.8285 16.1425 21.0281 15.6886 21.0281 15.2152V12.0562C21.3606 12.0294 21.6705 11.8863 21.8966 11.6551C22.1228 11.4239 22.2488 11.1212 22.25 10.8068V7.97795C22.2507 7.6577 22.1217 7.34925 21.8894 7.11546C21.6571 6.88166 21.3389 6.74013 20.9997 6.71969ZM1.89442 0.892389H19.1337C19.3849 0.892389 19.6258 0.986408 19.8035 1.15376C19.9811 1.32112 20.0809 1.5481 20.0809 1.78478V2.91725C19.7942 2.75754 19.4668 2.67426 19.1337 2.67631H1.89442C1.56134 2.67426 1.23393 2.75754 0.947211 2.91725V1.78478C0.947211 1.5481 1.04701 1.32112 1.22464 1.15376C1.40228 0.986408 1.64321 0.892389 1.89442 0.892389ZM19.1337 16.063H1.89442C1.64321 16.063 1.40228 15.969 1.22464 15.8016C1.04701 15.6343 0.947211 15.4073 0.947211 15.1706V4.41647C0.947211 4.17979 1.04701 3.95281 1.22464 3.78545C1.40228 3.6181 1.64321 3.52408 1.89442 3.52408H19.1337C19.3849 3.52408 19.6258 3.6181 19.8035 3.78545C19.9811 3.95281 20.0809 4.17979 20.0809 4.41647V6.71076H15.5911C14.8375 6.71076 14.1147 6.99282 13.5818 7.49489C13.0489 7.99695 12.7495 8.6779 12.7495 9.38793C12.7495 10.098 13.0489 10.7789 13.5818 11.281C14.1147 11.783 14.8375 12.0651 15.5911 12.0651H20.0525V15.2152C20.0406 15.4395 19.9395 15.6514 19.7692 15.8085C19.5989 15.9657 19.372 16.0565 19.1337 16.063ZM21.2744 10.7801C21.2744 10.8795 21.2325 10.9748 21.1578 11.0451C21.0832 11.1154 20.9821 11.1549 20.8765 11.1549H15.5911C15.0887 11.1549 14.6068 10.9668 14.2515 10.6321C13.8963 10.2974 13.6967 9.84343 13.6967 9.37008C13.6967 8.89673 13.8963 8.44276 14.2515 8.10805C14.6068 7.77334 15.0887 7.5853 15.5911 7.5853H20.8387C20.9442 7.5853 21.0454 7.62479 21.12 7.69508C21.1946 7.76537 21.2365 7.8607 21.2365 7.96011L21.2744 10.7801Z" fill="black"/>
<path d="M20.9997 6.71969H18.9997V8.6028L20.8794 8.71606L20.9997 6.71969ZM0 1.78478H-2H0ZM0 15.2152H-2H0ZM21.0281 12.0562L20.8677 10.0626L19.0281 10.2106V12.0562H21.0281ZM22.25 10.8068L24.25 10.8142V10.8068H22.25ZM22.25 7.97795L20.25 7.97362V7.97795H22.25ZM1.89442 0.892389V-1.10761V0.892389ZM19.1337 0.892389V-1.10761V0.892389ZM20.0809 2.91725L19.1076 4.66448L22.0809 6.32062V2.91725H20.0809ZM19.1337 2.67631V4.67635L19.146 4.67627L19.1337 2.67631ZM1.89442 2.67631L1.88213 4.67631H1.89442V2.67631ZM0.947211 2.91725H-1.05279V6.32062L1.92045 4.66448L0.947211 2.91725ZM19.1337 16.063V18.063H19.1608L19.1879 18.0623L19.1337 16.063ZM0.947211 15.1706H-1.05279H0.947211ZM1.89442 3.52408V1.52408V3.52408ZM19.1337 3.52408V1.52408V3.52408ZM20.0809 6.71076V8.71076H22.0809V6.71076H20.0809ZM15.5911 6.71076V4.71076V6.71076ZM15.5911 12.0651V14.0651V12.0651ZM20.0525 12.0651H22.0525V10.0651H20.0525V12.0651ZM20.0525 15.2152L22.0497 15.3205L22.0525 15.2679V15.2152H20.0525ZM21.2744 10.7801H23.2744V10.7666L23.2742 10.7532L21.2744 10.7801ZM15.5911 7.5853V9.5853V7.5853ZM21.2365 7.96011H19.2365V7.97354L19.2367 7.98698L21.2365 7.96011ZM22.9997 6.71969V1.78478H18.9997V6.71969H22.9997ZM22.9997 1.78478C22.9997 0.741213 22.5586 -0.23364 21.8163 -0.932964L19.0734 1.97846C19.0416 1.94856 18.9997 1.88164 18.9997 1.78478H22.9997ZM21.8163 -0.932964C21.078 -1.62848 20.1009 -2 19.1053 -2V2C19.1074 2 19.1069 2.00049 19.1031 1.99902C19.0993 1.99753 19.0881 1.99238 19.0734 1.97846L21.8163 -0.932964ZM19.1053 -2H1.89442V2H19.1053V-2ZM1.89442 -2C0.898758 -2 -0.0783527 -1.62848 -0.816595 -0.932964L1.92632 1.97846C1.91155 1.99238 1.90034 1.99753 1.89654 1.99902C1.89275 2.00049 1.89227 2 1.89442 2V-2ZM-0.816595 -0.932964C-1.55888 -0.23364 -2 0.741212 -2 1.78478H2C2 1.88164 1.95806 1.94856 1.92632 1.97846L-0.816595 -0.932964ZM-2 1.78478V15.2152H2V1.78478H-2ZM-2 15.2152C-2 16.2588 -1.55888 17.2336 -0.816595 17.933L1.92632 15.0215C1.95806 15.0514 2 15.1184 2 15.2152H-2ZM-0.816595 17.933C-0.0783485 18.6285 0.898764 19 1.89442 19V15C1.89226 15 1.89275 14.9995 1.89653 15.001C1.90034 15.0025 1.91154 15.0076 1.92632 15.0215L-0.816595 17.933ZM1.89442 19H19.1337V15H1.89442V19ZM19.1337 19C20.1293 19 21.1064 18.6285 21.8447 17.933L19.1018 15.0215C19.1166 15.0076 19.1278 15.0025 19.1316 15.001C19.1353 14.9995 19.1358 15 19.1337 15V19ZM21.8447 17.933C22.587 17.2336 23.0281 16.2588 23.0281 15.2152H19.0281C19.0281 15.1184 19.07 15.0514 19.1018 15.0215L21.8447 17.933ZM23.0281 15.2152V12.0562H19.0281V15.2152H23.0281ZM21.1885 14.0497C21.9856 13.9856 22.7514 13.6415 23.3265 13.0535L20.4668 10.2567C20.5896 10.1312 20.7357 10.0732 20.8677 10.0626L21.1885 14.0497ZM23.3265 13.0535C23.9047 12.4623 24.2469 11.6652 24.25 10.8142L20.25 10.7995C20.2508 10.5773 20.3408 10.3855 20.4668 10.2567L23.3265 13.0535ZM24.25 10.8068V7.97795H20.25V10.8068H24.25ZM24.25 7.98228C24.2519 7.11527 23.9016 6.30304 23.3081 5.70573L20.4707 8.52518C20.3418 8.39546 20.2495 8.20013 20.25 7.97362L24.25 7.98228ZM23.3081 5.70573C22.718 5.11189 21.9326 4.77227 21.12 4.72331L20.8794 8.71606C20.7453 8.70798 20.5962 8.65144 20.4707 8.52518L23.3081 5.70573ZM1.89442 2.89239H19.1337V-1.10761H1.89442V2.89239ZM19.1337 2.89239C18.8917 2.89239 18.6373 2.80292 18.432 2.60948L21.1749 -0.30195C20.6143 -0.830108 19.8781 -1.10761 19.1337 -1.10761V2.89239ZM18.432 2.60948C18.2226 2.41222 18.0809 2.11832 18.0809 1.78478H22.0809C22.0809 0.977883 21.7396 0.230014 21.1749 -0.30195L18.432 2.60948ZM18.0809 1.78478V2.91725H22.0809V1.78478H18.0809ZM21.0541 1.17002C20.4615 0.839925 19.7939 0.672211 19.1214 0.676346L19.146 4.67627C19.142 4.67629 19.1373 4.67584 19.1316 4.6744C19.1259 4.67295 19.1178 4.67012 19.1076 4.66448L21.0541 1.17002ZM19.1337 0.676308H1.89442V4.67631H19.1337V0.676308ZM1.90672 0.676346C1.23421 0.672211 0.566594 0.839925 -0.0260235 1.17002L1.92045 4.66448C1.91032 4.67012 1.90217 4.67295 1.89648 4.6744C1.89079 4.67584 1.88609 4.67629 1.88213 4.67627L1.90672 0.676346ZM2.94721 2.91725V1.78478H-1.05279V2.91725H2.94721ZM2.94721 1.78478C2.94721 2.11831 2.80548 2.41222 2.5961 2.60948L-0.146816 -0.30195C-0.711465 0.230019 -1.05279 0.977889 -1.05279 1.78478H2.94721ZM2.5961 2.60948C2.39077 2.80292 2.13644 2.89239 1.89442 2.89239V-1.10761C1.14997 -1.10761 0.41379 -0.830109 -0.146816 -0.30195L2.5961 2.60948ZM19.1337 14.063H1.89442V18.063H19.1337V14.063ZM1.89442 14.063C2.13643 14.063 2.39076 14.1525 2.5961 14.3459L-0.146816 17.2573C0.413795 17.7855 1.14998 18.063 1.89442 18.063V14.063ZM2.5961 14.3459C2.80548 14.5432 2.94721 14.8371 2.94721 15.1706H-1.05279C-1.05279 15.9775 -0.711466 16.7254 -0.146816 17.2573L2.5961 14.3459ZM2.94721 15.1706V4.41647H-1.05279V15.1706H2.94721ZM2.94721 4.41647C2.94721 4.75 2.80548 5.04391 2.5961 5.24116L-0.146816 2.32974C-0.711466 2.86171 -1.05279 3.60958 -1.05279 4.41647H2.94721ZM2.5961 5.24116C2.39077 5.43461 2.13644 5.52408 1.89442 5.52408V1.52408C1.14997 1.52408 0.413791 1.80158 -0.146816 2.32974L2.5961 5.24116ZM1.89442 5.52408H19.1337V1.52408H1.89442V5.52408ZM19.1337 5.52408C18.8917 5.52408 18.6373 5.43461 18.432 5.24116L21.1749 2.32974C20.6143 1.80158 19.8781 1.52408 19.1337 1.52408V5.52408ZM18.432 5.24116C18.2226 5.04391 18.0809 4.75001 18.0809 4.41647H22.0809C22.0809 3.60957 21.7396 2.8617 21.1749 2.32974L18.432 5.24116ZM18.0809 4.41647V6.71076H22.0809V4.41647H18.0809ZM20.0809 4.71076H15.5911V8.71076H20.0809V4.71076ZM15.5911 4.71076C14.3442 4.71076 13.1262 5.1763 12.2103 6.03917L14.9532 8.9506C15.1032 8.80934 15.3307 8.71076 15.5911 8.71076V4.71076ZM12.2103 6.03917C11.2904 6.90585 10.7495 8.10769 10.7495 9.38793H14.7495C14.7495 9.24811 14.8073 9.08805 14.9532 8.9506L12.2103 6.03917ZM10.7495 9.38793C10.7495 10.6682 11.2904 11.87 12.2103 12.7367L14.9532 9.82526C14.8073 9.6878 14.7495 9.52774 14.7495 9.38793H10.7495ZM12.2103 12.7367C13.1262 13.5996 14.3442 14.0651 15.5911 14.0651V10.0651C15.3307 10.0651 15.1032 9.96652 14.9532 9.82526L12.2103 12.7367ZM15.5911 14.0651H20.0525V10.0651H15.5911V14.0651ZM18.0525 12.0651V15.2152H22.0525V12.0651H18.0525ZM18.0552 15.11C18.0718 14.7951 18.2133 14.5229 18.4129 14.3386L21.1254 17.2784C21.6657 16.7799 22.0095 16.0839 22.0497 15.3205L18.0552 15.11ZM18.4129 14.3386C18.6093 14.1574 18.8492 14.07 19.0795 14.0637L19.1879 18.0623C19.8947 18.0431 20.5884 17.7739 21.1254 17.2784L18.4129 14.3386ZM19.2744 10.7801C19.2744 10.3092 19.474 9.88368 19.7864 9.58937L22.5293 12.5008C22.9909 12.0659 23.2744 11.4497 23.2744 10.7801H19.2744ZM19.7864 9.58937C20.0947 9.29887 20.4888 9.15486 20.8765 9.15486V13.1549C21.4753 13.1549 22.0717 12.9319 22.5293 12.5008L19.7864 9.58937ZM20.8765 9.15486H15.5911V13.1549H20.8765V9.15486ZM15.5911 9.15486C15.5889 9.15486 15.5894 9.15436 15.5932 9.15584C15.597 9.15733 15.6082 9.16247 15.623 9.17639L12.8801 12.0878C13.6183 12.7833 14.5954 13.1549 15.5911 13.1549V9.15486ZM15.623 9.17639C15.6547 9.2063 15.6967 9.27322 15.6967 9.37008H11.6967C11.6967 10.4136 12.1378 11.3885 12.8801 12.0878L15.623 9.17639ZM15.6967 9.37008C15.6967 9.46694 15.6547 9.53386 15.623 9.56376L12.8801 6.65234C12.1378 7.35166 11.6967 8.32651 11.6967 9.37008H15.6967ZM15.623 9.56376C15.6082 9.57769 15.597 9.58283 15.5932 9.58432C15.5894 9.5858 15.5889 9.5853 15.5911 9.5853V5.5853C14.5954 5.5853 13.6183 5.95682 12.8801 6.65234L15.623 9.56376ZM15.5911 9.5853H20.8387V5.5853H15.5911V9.5853ZM20.8387 9.5853C20.4509 9.5853 20.0569 9.44131 19.7485 9.15079L22.4914 6.23937C22.0338 5.80827 21.4374 5.5853 20.8387 5.5853V9.5853ZM19.7485 9.15079C19.4361 8.85646 19.2365 8.4309 19.2365 7.96011H23.2365C23.2365 7.29051 22.9531 6.67428 22.4914 6.23937L19.7485 9.15079ZM19.2367 7.98698L19.2745 10.8069L23.2742 10.7532L23.2363 7.93324L19.2367 7.98698Z" fill="black" mask="url(#path-1-inside-1)"/>
<path d="M15.2301 9.32489C15.2301 9.13505 15.3776 9.05872 15.4617 9.05872C15.5458 9.05872 15.6934 9.13505 15.6934 9.32489C15.6934 9.51473 15.5458 9.59106 15.4617 9.59106C15.3776 9.59106 15.2301 9.51473 15.2301 9.32489Z" fill="black" stroke="black" stroke-width="2"/>
</g>
</svg>
