<svg width="22" height="15" viewBox="0 0 22 15" fill="none" xmlns="http://www.w3.org/2000/svg">
<g opacity="0.5">
<path d="M19.1791 0H2.37317C1.06476 0 0 0.986995 0 2.19984V12.5002C0 13.713 1.06476 14.7 2.37317 14.7H19.1791C20.4914 14.7 21.5523 13.7112 21.5523 12.5002V2.19984C21.5523 0.986995 20.4894 0 19.1791 0ZM20.524 12.5019C20.524 13.1884 19.9216 13.7468 19.1791 13.7468H2.37317C1.63263 13.7468 1.03023 13.1884 1.03023 12.5019V7.35178H20.5259L20.524 12.5019ZM20.524 4.87629H1.02831V2.20162C1.02831 1.51517 1.63071 0.954984 2.37125 0.954984H19.1772C19.9197 0.954984 20.5221 1.51339 20.5221 2.20162L20.524 4.87629Z" fill="#030104"/>
</g>
</svg>
