<?xml version="1.0" encoding="UTF-8" standalone="no"?>
<svg
   xmlns:dc="http://purl.org/dc/elements/1.1/"
   xmlns:cc="http://creativecommons.org/ns#"
   xmlns:rdf="http://www.w3.org/1999/02/22-rdf-syntax-ns#"
   xmlns:svg="http://www.w3.org/2000/svg"
   xmlns="http://www.w3.org/2000/svg"
   id="svg8"
   version="1.1"
   viewBox="0 0 7.5738544 7.5738606"
   height="7.5738606mm"
   width="7.5738544mm">
  <defs
     id="defs2" />
  <metadata
     id="metadata5">
    <rdf:RDF>
      <cc:Work
         rdf:about="">
        <dc:format>image/svg+xml</dc:format>
        <dc:type
           rdf:resource="http://purl.org/dc/dcmitype/StillImage" />
        <dc:title></dc:title>
      </cc:Work>
    </rdf:RDF>
  </metadata>
  <g
     transform="translate(307.44356,-51.11932)"
     id="layer1">
    <g
       transform="matrix(0.28599216,0,0,0.28599216,-307.57147,51.06025)"
       id="g829"
       style="fill:none">
      <path
         style="fill:#3b5998"
         d="m 26.93,25.0341 c 0,0.9137 -0.7415,1.6552 -1.6551,1.6552 H 2.10244 c -0.91366,0 -1.655174,-0.7415 -1.655174,-1.6552 V 1.86172 c 0,-0.91366 0.741514,-1.655177 1.655174,-1.655177 H 25.2749 c 0.9136,0 1.6551,0.741517 1.6551,1.655177 z"
         id="path815" />
      <path
         style="fill:#ffffff"
         d="m 18.6534,26.6893 v -9.931 h 3.3103 l 0.8276,-4.138 h -4.1379 v -1.6551 c 0,-1.6552 0.8292,-2.48279 2.4827,-2.48279 h 1.6552 V 4.34448 c -0.8276,0 -1.8538,0 -3.3104,0 -3.0413,0 -4.9655,2.38428 -4.9655,5.79312 v 2.4827 h -3.3103 v 4.138 h 3.3103 v 9.931 z"
         id="path817" />
    </g>
  </g>
</svg>
