{
	"items": {
		"1": {
			"imgName": "basket-item__img-1.jpg",
			"title": "Курочка фермерская зерновая отборная,",
			"price": {
				"new": "450 ₽/кг"
			},
			"tags": {
				"list": {
					"new": "alt"
				}
			},
			"checks": {
				"Нарезать кусочками<b>+ 20 ₽/кг</b>": "",
				"Замариновать для запекания": ""
			},
			"summa": {
				"val": "1 500 ₽"
			},
			"num": "5"
		},
		"2": {
			"imgName": "basket-item__img-2.jpg",
			"title": "Курочка зерновая отборная,",
			"price": {
				"old": "500 ₽",
				"new": "450 ₽/кг"
			},
			"tags": {
				"list": {
					"new": "alt"
				}
			},
			"summa": {
				"val": "153 000 ₽"
			},
			"num": "1"
		},
		"3": {
			"imgName": "basket-item__img-3.jpg",
			"title": "Курочка фермерская зерновая отборная,",
			"price": {
				"new": "700 ₽/кг"
			},
			"checks": {
				"Приготовить по рецепту шеф-повара<b>+ 1000 ₽</b>": "other"
			},
			"summa": {
				"val": "23 000 ₽"
			},
			"num": "1"
		},
		"4": {
			"imgName": "basket-item__img-1.jpg",
			"title": "Курочка фермерская зерновая отборная,",
			"price": {
				"new": "450 ₽/кг"
			},
			"checks": {
				"Нарезать кусочками<b>+ 20 ₽/кг</b>": "",
				"Замариновать для запекания": ""
			},
			"summa": {
				"val": "400 ₽"
			},
			"num": "15"
		}
	}
}