<?xml version="1.0" encoding="UTF-8" standalone="no"?>
<svg
   xmlns:dc="http://purl.org/dc/elements/1.1/"
   xmlns:cc="http://creativecommons.org/ns#"
   xmlns:rdf="http://www.w3.org/1999/02/22-rdf-syntax-ns#"
   xmlns:svg="http://www.w3.org/2000/svg"
   xmlns="http://www.w3.org/2000/svg"
   width="41.855999"
   height="48"
   viewBox="0 0 41.855999 48"
   fill="none"
   version="1.1"
   id="svg22">
  <metadata
     id="metadata28">
    <rdf:RDF>
      <cc:Work
         rdf:about="">
        <dc:format>image/svg+xml</dc:format>
        <dc:type
           rdf:resource="http://purl.org/dc/dcmitype/StillImage" />
        <dc:title></dc:title>
      </cc:Work>
    </rdf:RDF>
  </metadata>
  <defs
     id="defs26" />
  <path
     d="m 97.87863,37.125884 v 11.9765"
     stroke="#ffffff"
     stroke-width="1.5"
     stroke-linecap="round"
     stroke-linejoin="round"
     id="path4" />
  <path
     d="m 95.63303,34.880284 2.2456,2.2456 2.2456,-2.2456"
     stroke="#ffffff"
     stroke-width="1.5"
     stroke-linecap="round"
     stroke-linejoin="round"
     id="path6" />
  <path
     d="m 95.63303,51.347784 2.2456,-2.2456 2.2456,2.2456"
     stroke="#ffffff"
     stroke-width="1.5"
     stroke-linecap="round"
     stroke-linejoin="round"
     id="path8" />
  <path
     d="m 92.69263,40.119684 10.3719,5.9883"
     stroke="#ffffff"
     stroke-width="1.5"
     stroke-linecap="round"
     stroke-linejoin="round"
     id="path10" />
  <path
     d="m 89.62523,40.941984 3.0675,-0.822 -0.8219,-3.0676"
     stroke="#ffffff"
     stroke-width="1.5"
     stroke-linecap="round"
     stroke-linejoin="round"
     id="path12" />
  <path
     d="m 103.88613,49.175784 -0.8219,-3.0675 3.0674,-0.822"
     stroke="#ffffff"
     stroke-width="1.5"
     stroke-linecap="round"
     stroke-linejoin="round"
     id="path14" />
  <path
     d="m 92.69263,46.107984 10.3719,-5.9883"
     stroke="#ffffff"
     stroke-width="1.5"
     stroke-linecap="round"
     stroke-linejoin="round"
     id="path16" />
  <path
     d="m 91.87083,49.175784 0.8219,-3.0675 -3.0675,-0.822"
     stroke="#ffffff"
     stroke-width="1.5"
     stroke-linecap="round"
     stroke-linejoin="round"
     id="path18" />
  <path
     d="m 106.13163,40.941984 -3.0674,-0.822 0.8219,-3.0676"
     stroke="#ffffff"
     stroke-width="1.5"
     stroke-linecap="round"
     stroke-linejoin="round"
     id="path20" />
  <g
     style="fill:none"
     id="g388"
     transform="translate(-3.072)">
    <path
       d="M 24,48 13.536,42.1242 3.21539,36 3.072,24 3.21539,12 13.536,5.87582 24,1.71655e-6 34.464,5.87582 44.7846,12 44.928,24 44.7846,36 34.464,42.1242 Z"
       fill="#000000"
       id="path374" />
    <path
       d="m 16.0876,22 v -5.6 h 4.672 V 22 h -1.232 v -4.488 h -2.208 V 22 Z m 10.4637,-0.744 c -0.5654,0.56 -1.2747,0.84 -2.128,0.84 -0.8534,0 -1.5627,-0.28 -2.128,-0.84 -0.56,-0.56 -0.84,-1.2453 -0.84,-2.056 0,-0.8053 0.2826,-1.488 0.848,-2.048 0.5706,-0.5653 1.2826,-0.848 2.136,-0.848 0.8533,0 1.56,0.28 2.12,0.84 0.5653,0.56 0.848,1.2453 0.848,2.056 0,0.8053 -0.2854,1.4907 -0.856,2.056 z m -3.328,-0.808 c 0.32,0.3413 0.7253,0.512 1.216,0.512 0.4906,0 0.8933,-0.168 1.208,-0.504 0.3146,-0.3413 0.472,-0.76 0.472,-1.256 0,-0.4907 -0.16,-0.9067 -0.48,-1.248 -0.32,-0.3413 -0.7254,-0.512 -1.216,-0.512 -0.4907,0 -0.8934,0.1707 -1.208,0.512 -0.3147,0.336 -0.472,0.752 -0.472,1.248 0,0.4907 0.16,0.9067 0.48,1.248 z m 4.2848,2.72 v -2.28 h 0.528 c 0.2187,-0.5067 0.376,-1.0427 0.472,-1.608 0.096,-0.5653 0.144,-1.3067 0.144,-2.224 V 16.4 h 4.072 v 4.488 h 0.672 l -0.16,2.28 h -1.032 V 22 h -3.504 l -0.08,1.168 z m 3.984,-5.656 h -1.656 v 0.568 c 0,1.056 -0.168,1.992 -0.504,2.808 h 2.16 z m -18.0047,8.792 c 0.5974,0 1.0827,0.1413 1.456,0.424 0.3787,0.2827 0.568,0.6427 0.568,1.08 0,0.5973 -0.3013,1.0267 -0.904,1.288 0.6987,0.224 1.048,0.664 1.048,1.32 0,0.4907 -0.1946,0.8933 -0.584,1.208 -0.384,0.3147 -0.8986,0.472 -1.544,0.472 -0.5706,0 -1.0506,-0.0773 -1.44,-0.232 -0.384,-0.1547 -0.7333,-0.3893 -1.048,-0.704 l 0.656,-0.856 c 0.4854,0.4747 1.08,0.712 1.784,0.712 0.272,0 0.496,-0.0587 0.672,-0.176 0.1814,-0.1227 0.272,-0.288 0.272,-0.496 0,-0.224 -0.1013,-0.3893 -0.304,-0.496 -0.1973,-0.1067 -0.4666,-0.16 -0.808,-0.16 h -0.648 v -1.024 h 0.632 c 0.6667,0 1,-0.216 1,-0.648 0,-0.192 -0.0826,-0.344 -0.248,-0.456 -0.1653,-0.112 -0.384,-0.168 -0.656,-0.168 -0.608,0 -1.112,0.2053 -1.512,0.616 l -0.648,-0.784 c 0.5867,-0.6133 1.3387,-0.92 2.256,-0.92 z m 2.3624,5.696 2.4,-5.64 h 1.136 l 2.4,5.64 h -1.288 l -0.512,-1.256 h -2.368 L 17.1058,32 Z m 2.208,-2.344 h 1.488 L 18.8018,27.84 Z M 22.2501,32 v -5.6 h 1.232 v 2.448 l 2.272,-2.448 h 1.488 l -2.28,2.376 2.384,3.224 h -1.48 l -1.736,-2.384 -0.648,0.672 V 32 Z m 4.9638,0 2.4,-5.64 h 1.136 l 2.4,5.64 h -1.288 l -0.512,-1.256 h -2.368 L 28.4699,32 Z m 2.208,-2.344 h 1.488 l -0.744,-1.816 z m 6.1843,-3.352 c 0.5973,0 1.0827,0.1413 1.456,0.424 0.3787,0.2827 0.568,0.6427 0.568,1.08 0,0.5973 -0.3013,1.0267 -0.904,1.288 0.6987,0.224 1.048,0.664 1.048,1.32 0,0.4907 -0.1947,0.8933 -0.584,1.208 -0.384,0.3147 -0.8987,0.472 -1.544,0.472 -0.5707,0 -1.0507,-0.0773 -1.44,-0.232 -0.384,-0.1547 -0.7333,-0.3893 -1.048,-0.704 l 0.656,-0.856 c 0.4853,0.4747 1.08,0.712 1.784,0.712 0.272,0 0.496,-0.0587 0.672,-0.176 0.1813,-0.1227 0.272,-0.288 0.272,-0.496 0,-0.224 -0.1013,-0.3893 -0.304,-0.496 -0.1973,-0.1067 -0.4667,-0.16 -0.808,-0.16 h -0.648 v -1.024 h 0.632 c 0.6667,0 1,-0.216 1,-0.648 0,-0.192 -0.0827,-0.344 -0.248,-0.456 -0.1653,-0.112 -0.384,-0.168 -0.656,-0.168 -0.608,0 -1.112,0.2053 -1.512,0.616 l -0.648,-0.784 c 0.5867,-0.6133 1.3387,-0.92 2.256,-0.92 z"
       fill="#ffffff"
       id="path376" />
  </g>
</svg>
