<!-- Generated by IcoMoon.io -->
<svg version="1.1" xmlns="http://www.w3.org/2000/svg" width="512" height="512" viewBox="0 0 512 512">
<title></title>
<g id="icomoon-ignore">
</g>
<path d="M142.829 495.447c-6.847-1.262-15.572-8.083-18.92-14.793-3.841-7.697-3.828-21.715 0.028-29.093 1.094-2.095 22.956-24.268 97.335-98.726 52.758-52.813 95.923-96.257 95.923-96.541s-43.049-43.611-95.664-96.281c-105.614-105.722-98.364-97.99-99.87-106.528-1.352-7.665-0.516-16.395 2.052-21.448 3.002-5.907 9.768-12.322 14.891-14.118 5.704-2.001 13.624-2.479 20.051-1.212 4.875 0.96 6.191 1.523 9.992 4.268 1.758 1.27 51.399 50.581 110.313 109.581 79.512 79.628 107.549 108.018 108.798 110.172 4.188 7.221 4.337 22.534 0.296 30.272-1.098 2.101-25.632 26.926-110.392 111.702-101.996 102.014-109.201 109.104-112.411 110.619-1.886 0.89-4.868 1.875-6.626 2.188-3.74 0.666-12.022 0.634-15.796-0.062z"></path>
<path d="M142.566 495.092c-4.998-1.303-8.75-3.543-12.927-7.719-7.382-7.379-10.188-17.412-7.904-28.264 1.739-8.268-4.981-1.13 100.059-106.272 52.761-52.813 95.93-96.256 95.93-96.54s-43.051-43.61-95.668-96.281c-89.618-89.707-95.79-96.001-97.596-99.521-7.104-13.846-3.178-30.52 9.239-39.24 5.416-3.803 9.602-5.014 17.309-5.008s11.947 1.227 17.171 4.943c4.409 3.136 215.521 214.248 218.093 218.093 0.925 1.381 2.058 3.399 2.521 4.484 2.28 5.351 2.882 13.755 1.434 20.009-1.875 8.094 5.654 0.176-112.819 118.65-118.272 118.272-110.6 110.969-118.534 112.839-4.397 1.036-11.971 0.955-16.306-0.175z"></path>
<path d="M143.621 495.276c-8.166-2.245-15.982-8.546-19.435-15.668-4.647-9.586-4.069-20.685 1.534-29.468 1.608-2.519 26.678-27.918 97.474-98.751l95.311-95.36-96.049-96.153c-75.262-75.342-96.361-96.747-97.487-98.9-6.705-12.813-4.762-26.508 5.15-36.295 9.29-9.174 22.254-11.223 34.471-5.45 3.384 1.599 9.026 7.14 111.609 109.612 59.425 59.361 108.874 109.167 109.887 110.681 5.908 8.837 6.555 20.117 1.735 30.22-1.524 3.194-9.065 10.863-109.861 111.734-59.524 59.568-109.368 109.044-110.767 109.948-4.564 2.949-8.957 4.241-15.131 4.454-3.841 0.132-6.429-0.054-8.441-0.606z"></path>
<path d="M145.732 495.709c-1.756-0.301-6.425-2.026-8.899-3.288-5.915-3.018-11.489-9.684-14.147-16.918-1.844-5.020-2.061-12.744-0.489-17.411 2.701-8.016-2.878-2.151 100.125-105.258 52.761-52.813 95.928-96.376 95.928-96.805s-43.168-43.992-95.93-96.806c-103.013-103.118-97.43-97.248-100.122-105.259-1.339-3.986-1.335-11.865 0.009-15.828 1.717-5.062 4.028-9.073 7.095-12.311 3.654-3.858 7.040-6.085 12.208-8.032 3.393-1.278 4.746-1.494 9.496-1.518 4.894-0.026 6 0.15 9.496 1.503 2.177 0.843 5.144 2.301 6.595 3.241 1.487 0.962 49.886 49.006 110.867 110.049 102.006 102.113 108.322 108.541 109.851 111.809 4.414 9.432 4.331 17.411-0.281 26.869-1.885 3.865-4.444 6.472-110.392 112.447-106.562 106.589-108.532 108.524-112.419 110.389-2.177 1.045-5.372 2.259-7.101 2.697-2.922 0.743-8.82 0.956-11.892 0.43z"></path>
<path d="M145.732 495.733c-0.726-0.149-1.544-0.489-1.82-0.754s-0.897-0.483-1.38-0.483c-0.483 0-2.57-0.846-4.637-1.88-6.708-3.356-12.166-9.457-14.547-16.262-0.621-1.774-1.333-3.555-1.583-3.958s-0.466-3.014-0.481-5.803c-0.022-4.264 0.206-5.7 1.428-9.027 0.799-2.176 2.060-5.025 2.802-6.331 0.854-1.503 36.528-37.579 97.307-98.399 52.777-52.813 95.959-96.257 95.959-96.541s-43.168-43.728-95.928-96.543c-103.746-103.853-97.534-97.302-100.448-105.907-1.246-3.678-1.578-12.099-0.561-14.248 0.311-0.657 0.983-2.381 1.495-3.833s1.712-3.871 2.668-5.378c3.891-6.133 8.201-9.561 15.6-12.409 3.81-1.466 5.055-1.692 9.404-1.707 4.418-0.015 5.532 0.184 9.404 1.69 2.416 0.939 5.62 2.53 7.122 3.535 3.996 2.673 217.216 216.247 218.955 219.319 0.765 1.352 2.039 4.201 2.832 6.331 1.211 3.257 1.443 4.721 1.457 9.201 0.010 3.037-0.25 5.873-0.602 6.595-0.341 0.697-1.038 2.426-1.55 3.844s-1.81 3.911-2.885 5.539c-1.216 1.843-42.694 43.656-109.771 110.656-104.435 104.315-107.939 107.753-111.713 109.606-2.143 1.051-4.292 1.911-4.774 1.911s-1.137 0.259-1.452 0.574c-0.61 0.61-10.077 1.12-12.299 0.663z"></path>
<path d="M146.524 495.723c-0.869-0.147-1.701-0.436-1.846-0.643s-1.72-0.865-3.496-1.463c-4.181-1.406-8.472-4.281-11.756-7.873-2.9-3.173-6.219-9.315-6.717-12.428-0.177-1.108-0.53-1.886-0.784-1.729s-0.462-2.221-0.462-5.286c0-3.063 0.188-5.57 0.418-5.57s0.712-1.098 1.070-2.438c1.895-7.087-3.489-1.432 99.639-104.665 63.153-63.219 96.189-96.647 96.189-97.332s-32.947-34.023-95.936-97.072c-94.148-94.236-95.972-96.1-97.832-99.983-1.042-2.176-2.056-4.847-2.252-5.935s-0.569-1.978-0.827-1.978c-0.258 0-0.469-2.374-0.469-5.276s0.216-5.276 0.481-5.276c0.265 0 0.644-0.965 0.844-2.143 0.65-3.846 3.882-9.431 7.626-13.175 3.594-3.594 9.34-6.991 12.981-7.674 0.995-0.186 1.81-0.517 1.81-0.735 0-0.598 5.427-1.032 8.691-0.696 1.589 0.164 2.78 0.474 2.648 0.687s0.666 0.535 1.774 0.712c1.108 0.177 3.775 1.186 5.926 2.241 3.797 1.863 7.084 5.092 112.397 110.404 104.837 104.837 108.549 108.615 110.38 112.347 1.041 2.124 2.047 4.676 2.233 5.672s0.518 1.81 0.736 1.81c0.646 0 1.091 5.438 0.729 8.898-0.184 1.764-0.514 3.098-0.731 2.964s-0.543 0.534-0.721 1.487c-0.178 0.952-1.167 3.502-2.197 5.666-1.84 3.868-3.702 5.767-109.602 111.716-61.325 61.354-108.952 108.598-110.567 109.678-1.56 1.043-4.29 2.385-6.067 2.983s-3.369 1.286-3.538 1.53c-0.363 0.524-8.497 0.959-10.77 0.576z"></path>
<path d="M146.523 495.551c-1.936-0.347-1.98-0.389-0.528-0.51 1.476-0.123 1.44-0.161-0.528-0.557-7.712-1.548-14.745-6.462-19.105-13.349-1.76-2.781-3.8-8.492-3.897-10.909l-0.073-1.846-0.403 1.583c-0.259 1.019-0.4-0.391-0.395-3.957 0.004-3.709 0.135-4.93 0.395-3.693l0.388 1.846 0.070-1.659c0.123-2.925 2.103-8.349 4.225-11.569 1.354-2.053 34.785-35.832 97.347-98.356 62.765-62.728 95.285-95.586 95.285-96.276s-32.79-33.873-95.927-97.076c-82.909-82.996-96.147-96.457-97.552-99.193-1.819-3.54-3.273-8.070-3.379-10.516l-0.070-1.619-0.388 1.846c-0.259 1.231-0.388-0.001-0.388-3.694s0.13-4.923 0.388-3.694l0.388 1.846 0.070-1.619c0.317-7.385 6.955-17.544 14.058-21.518 3.25-1.818 8.091-3.483 10.395-3.575l1.731-0.070-1.846-0.346c-1.684-0.315-1.569-0.371 1.319-0.639 1.741-0.161 4.471-0.127 6.067 0.077 2.391 0.305 2.576 0.393 1.055 0.506-1.614 0.119-1.481 0.197 1.055 0.615 1.596 0.264 4.801 1.346 7.122 2.407l4.22 1.928 107.272 107.137c59.289 59.215 108.341 108.618 109.661 110.448 2.443 3.386 4.836 9.16 4.967 11.989l0.074 1.583 0.361-1.583c0.565-2.476 1.137 5.251 0.605 8.177-0.274 1.504-0.466 1.891-0.527 1.055-0.055-0.764-0.521 0.303-1.106 2.538-0.555 2.121-1.654 5.089-2.442 6.595-1.122 2.144-24.793 26.134-109.094 110.555-69.673 69.774-108.743 108.529-110.726 109.837-2.831 1.865-7.749 3.829-10.916 4.358-1.215 0.203-1.194 0.231 0.264 0.358 1.355 0.118 1.241 0.199-0.791 0.56-2.817 0.502-5.806 0.492-8.705-0.026z"></path>
</svg>
