<!-- Generated by IcoMoon.io -->
<svg version="1.1" xmlns="http://www.w3.org/2000/svg" width="512" height="512" viewBox="0 0 512 512">
<title></title>
<g id="icomoon-ignore">
</g>
<path d="M157.352 494.333c-1.784-0.957-4.103-2.89-5.154-4.296-1.853-2.481-1.923-4.123-2.38-55.814l-0.47-53.257-30.538-0.553c-27.87-0.505-31.15-0.735-37.535-2.639-25.613-7.634-44.374-25.675-51.893-49.899l-2.187-7.047v-245.249l2.201-7.047c7.489-23.981 24.735-41.068 49.95-49.484l7.987-2.666 164.439-0.296c124.062-0.223 166.041-0.021 170.964 0.823 29.010 4.974 51.306 24.199 59.87 51.624l2.2 7.047v245.249l-2.202 7.014c-7.673 24.436-26.108 42.214-51.827 49.977-6.954 2.099-7.918 2.134-73.029 2.637l-65.981 0.51-5.432 5.256c-24.975 24.167-114.244 107.13-116.563 108.329-3.879 2.006-8.419 1.926-12.417-0.217zM229.108 401.168c27.212-25.582 50.631-47.022 52.043-47.644 1.918-0.846 19.091-1.147 67.873-1.191 71.749-0.065 72.659-0.127 83.712-5.705 7.173-3.62 16.553-12.73 19.558-18.992 4.932-10.279 4.767-5.809 4.779-129.469 0.012-127.064 0.282-121.055-5.901-131.376-3.913-6.531-12.392-14.359-18.874-17.426-11.766-5.566-1.654-5.263-175.429-5.263-101.589 0-161.251 0.339-164.476 0.934-12.374 2.283-25.712 11.658-32.089 22.557-5.59 9.553-5.393 4.765-5.367 130.574 0.015 74.171 0.361 116.611 0.973 119.265 2.657 11.526 12.346 23.639 23.352 29.195 10.25 5.175 14.656 5.645 52.976 5.663 33.026 0.016 34.739 0.103 38.362 1.951 2.685 1.37 4.314 3.084 5.58 5.873 1.672 3.682 1.789 6.687 1.809 46.066 0.012 23.269 0.384 41.988 0.833 41.815 0.446-0.173 23.076-21.243 50.287-46.826zM216.221 305.637c-1.189-1.188-0.718-38.372 0.501-39.591 1.591-1.591 36.559-1.591 38.15 0 1.592 1.592 1.592 37.497 0 39.089-1.219 1.219-37.464 1.689-38.651 0.501zM223.603 242.132c-0.805-3.522-5.19-39.657-5.19-42.774 0-3.437 0.257-3.544 11.745-4.91 23.585-2.804 35.913-9.726 39.54-22.203 6.433-22.128-14.529-37.452-41.798-30.556-9.719 2.458-17.726 6.862-25.836 14.212-3.433 3.111-6.619 5.656-7.081 5.656-1.491 0-21.675-21.891-21.675-23.508 0-1.803 9.489-11.093 16.57-16.221 14.001-10.142 28.284-14.754 47.889-15.461 20.25-0.731 32.718 2.296 45.966 11.157 15.894 10.631 23.913 26.343 23.913 46.852 0 20.175-7.163 34.424-22.394 44.55-7.781 5.173-12.954 7.445-24.556 10.785l-8.927 2.57-1.156 8.869c-1.903 14.597-0.259 13.096-14.349 13.096-11.861 0-12.192-0.055-12.663-2.114z"></path>
<path d="M156.678 493.291c-6.536-3.986-6.337-2.212-6.858-60.646l-0.47-52.62-31.008-0.545c-34.479-0.606-36.112-0.849-49.802-7.42-19.402-9.313-33.911-26.659-39.026-46.651-1.793-7.009-1.849-10.948-1.849-127.207 0-116.548 0.053-120.183 1.863-127.259 5.12-20.018 18.861-36.687 38.072-46.181 4.651-2.299 12.051-5.125 16.444-6.281l7.987-2.101h327.938l7.987 2.101c10.608 2.791 23.431 9.244 31.287 15.747 10.914 9.035 19.721 22.998 23.279 36.91 1.745 6.823 1.813 11.62 1.813 127.065 0 116.258-0.057 120.199-1.849 127.207-6.488 25.366-27.872 45.845-54.529 52.222-7.623 1.824-10.897 1.911-71.729 1.917l-63.743 0.005-5.791 5.473c-47.261 44.663-115.471 108.271-116.963 109.069-3.061 1.639-9.716 1.227-13.052-0.807zM229.090 402.143c27.206-25.563 50.206-46.916 51.109-47.452 1.073-0.637 25.395-1.147 70.236-1.469 67.611-0.487 68.683-0.524 74.77-2.57 11.913-4.005 22.606-12.818 27.666-22.803 5.213-10.287 5.121-7.968 5.133-129.175 0.007-68.2-0.346-114.018-0.905-117.457-2.918-17.96-17.695-32.513-37.212-36.648-9.752-2.066-318.022-2.066-327.774 0-19.517 4.135-34.293 18.687-37.212 36.648-0.559 3.439-0.911 49.257-0.905 117.457 0.011 120.724-0.056 118.946 4.976 128.855 5.2 10.238 15.948 19.159 27.822 23.092 5.841 1.935 8.207 2.066 43.761 2.409 35.184 0.339 37.774 0.479 40.54 2.183 5.978 3.685 5.973 3.642 5.973 51.099 0 35.696 0.214 42.865 1.278 42.612 0.702-0.167 23.537-21.219 50.744-46.781zM216.962 304.141c-0.258-0.672-0.354-9.455-0.214-19.518l0.256-18.296h37.587v38.526l-18.58 0.255c-14.568 0.2-18.681-0.011-19.049-0.967zM225.053 242.911c-0.609-0.734-2.279-10.957-3.709-22.715-2.518-20.699-2.547-21.435-0.887-23.096 1.137-1.137 3.099-1.715 5.821-1.715 6.617 0 19.849-2.637 26.403-5.26 12.493-5.001 18.368-12.971 18.334-24.871-0.034-11.657-5.291-19.471-15.84-23.547-8.045-3.108-21.599-2.913-31.43 0.453-8.607 2.947-16.085 7.48-22.892 13.875-2.682 2.52-5.29 4.582-5.793 4.582-1.555 0-20.809-20.933-20.809-22.624 0-0.875 2.744-4.159 6.096-7.295 14.92-13.957 30.529-21.229 50.739-23.641 16.286-1.943 31.347 0.428 45.328 7.136 6.78 3.252 10.089 5.579 15.185 10.674 10.775 10.775 15.209 22.293 15.209 39.507 0 15.117-3.613 26.231-11.402 35.081-7.638 8.677-23.598 17.289-37.861 20.43-6.543 1.441-6.713 1.735-8.046 13.953-0.567 5.199-1.462 9.17-2.167 9.617-0.66 0.419-5.694 0.768-11.186 0.776-7.496 0.011-10.262-0.319-11.095-1.321z"></path>
<path d="M158.343 493.487c-1.772-0.904-4.098-2.837-5.168-4.295-1.9-2.59-1.957-3.903-2.416-55.909l-0.47-53.257-30.538-0.565c-27.692-0.512-31.196-0.757-37.586-2.628-25.805-7.558-44.112-25.184-51.829-49.897l-2.2-7.047v-121.215c0-128.646-0.148-124.109 4.447-135.78 8.198-20.819 26.242-36.615 50.053-43.819 5.338-1.615 14.359-1.721 169.579-1.983 181.159-0.306 172.031-0.581 186.922 5.614 20.77 8.64 35.772 25.137 42.528 46.764l2.202 7.047v243.37l-2.2 7.047c-7.616 24.391-25.218 41.664-50.42 49.481l-8.457 2.623-131.056 0.611-59.916 56.411c-32.953 31.026-61.276 57.010-62.939 57.741-3.989 1.756-6.628 1.676-10.535-0.315zM228.787 402.923c27.569-25.909 51.51-47.685 53.203-48.392 2.505-1.046 15.291-1.286 68.687-1.286 55.653 0 66.458-0.217 71.209-1.43 17.505-4.469 30.554-16.772 34.86-32.868 1.017-3.804 1.255-26.793 1.245-120.745-0.007-74.82-0.349-117.511-0.962-120.168-3.532-15.32-17.669-29.109-34.28-33.436-4.856-1.264-25.010-1.438-166.749-1.438s-161.893 0.174-166.749 1.438c-13.763 3.585-25.331 13.017-31.302 25.521l-3.504 7.338-0.291 117.457c-0.215 86.729-0.005 118.808 0.803 122.625 2.534 11.976 12.39 24.491 23.569 29.933 11.319 5.509 13.725 5.774 52.322 5.774 38.835 0 39.445 0.084 43.657 5.988 2.086 2.925 2.097 3.139 2.366 46.867 0.149 24.161 0.613 43.929 1.031 43.929s23.318-21.198 50.886-47.106zM217.662 304.196c-1.589-1.589-1.589-35.621 0-37.211 0.794-0.795 6.195-1.127 18.29-1.127 16.006 0 17.228 0.123 18.136 1.817 1.286 2.402 1.286 33.428 0 35.83-0.907 1.695-2.129 1.817-18.136 1.817-12.095 0-17.495-0.333-18.29-1.128zM224.55 241.192c-1.065-4.72-5.298-42.311-4.886-43.385 0.275-0.718 4.422-1.588 10.934-2.294 28.882-3.132 42.824-14.273 41.137-32.871-0.87-9.598-6.202-16.789-15.64-21.096-3.606-1.645-6.2-1.98-15.601-2.013-9.497-0.033-12.239 0.306-17.383 2.149-7.859 2.816-15.579 7.519-22.055 13.438-2.832 2.589-5.752 4.567-6.49 4.398-1.578-0.363-20.316-20.061-20.316-21.358 0-0.486 1.982-2.866 4.404-5.288 10.846-10.847 25.090-19.23 39.34-23.154 6.214-1.712 10.066-2.067 22.97-2.123 17.928-0.078 23.061 0.948 35.652 7.121 19.185 9.406 30.091 27.403 30.091 49.661 0 27.63-15.332 45.546-46.481 54.314l-9.397 2.645-1.573 10.751c-0.865 5.913-1.606 10.857-1.644 10.986s-5.137 0.235-11.328 0.235c-10.907 0-11.273-0.065-11.734-2.114z"></path>
<path d="M155.982 491.297c-1.851-1.625-3.719-4.409-4.256-6.342-0.595-2.144-0.959-22.68-0.963-54.322-0.005-45.522-0.161-50.936-1.492-51.446-0.817-0.313-14.031-0.574-29.364-0.577-30.823-0.008-36.92-0.803-49.362-6.445-14.788-6.705-27.814-19.070-34.807-33.039-7.642-15.267-7.228-6.673-6.931-143.742l0.265-121.684 2.646-7.517c3.835-10.894 9.751-19.775 19.014-28.543 9.298-8.802 20.219-14.774 33.31-18.218l7.987-2.101h327.938l7.987 2.101c4.392 1.155 11.995 4.076 16.894 6.491 7.583 3.737 10.246 5.729 17.921 13.404 10.099 10.099 15.231 18.643 18.685 31.103 1.914 6.909 1.94 8.623 1.94 127.382 0 116.66-0.057 120.602-1.849 127.611-6.377 24.932-27.432 45.007-53.847 51.34-7.292 1.748-11.277 1.853-70.39 1.86-34.659 0.003-63.633 0.383-64.836 0.849-1.197 0.463-28.199 25.305-60.005 55.204s-59.218 55.526-60.915 56.947c-4.538 3.801-11.034 3.671-15.571-0.312zM228.854 403.517c27.481-25.841 50.645-47.406 51.476-47.922 0.95-0.591 26.773-1.13 69.635-1.452 60.975-0.459 68.709-0.683 73.692-2.145 8.024-2.353 14.202-5.968 20.943-12.253 7.029-6.553 11.95-15.747 13.397-25.024 1.298-8.325 1.298-224.709 0-233.034-2.914-18.692-18.077-33.863-38.029-38.051-9.881-2.075-318.057-2.075-327.938 0-19.273 4.047-33.8 17.919-37.615 35.919-2.008 9.474-2.008 227.826 0 237.299 3.532 16.671 17.59 30.821 35.292 35.528 2.713 0.721 17.605 1.322 42.007 1.696l37.804 0.579 6.14 6.142 0.244 43.911c0.135 24.151 0.452 44.475 0.705 45.164s0.869 1.112 1.369 0.94c0.5-0.173 23.393-21.455 50.875-47.296zM217.474 285.591v-18.834l36.177 0.51v36.647l-36.177 0.51zM225.482 242.401c-0.308-0.498-1.597-9.272-2.865-19.498s-2.507-19.738-2.754-21.139c-0.64-3.633 1.583-5.44 6.692-5.44 6.837 0 22.855-3.659 29.133-6.654 6.814-3.251 13.523-10.185 15.169-15.677 0.615-2.051 1.117-6.485 1.117-9.855 0-15.965-12.207-25.547-32.418-25.448-13.992 0.069-26.167 5.195-39.367 16.576l-5.539 4.776-9.692-10.285c-5.331-5.656-9.709-10.966-9.731-11.8s1.996-3.418 4.482-5.743c11.923-11.152 25.852-18.957 40.114-22.476 11.726-2.893 32.292-2.897 43.037-0.008 21.613 5.811 38.061 21.854 42.053 41.019 1.502 7.214 1.486 21.263-0.033 27.806-4.647 20.026-20.627 33.785-46.846 40.338-3.803 0.95-7.087 1.901-7.298 2.112s-0.972 4.862-1.691 10.333c-0.719 5.472-1.587 10.403-1.93 10.958-0.787 1.274-20.85 1.369-21.633 0.102z"></path>
<path d="M158.582 492.822c-1.641-0.714-3.755-2.475-4.698-3.914-1.595-2.433-1.748-6.368-2.185-56.219l-0.47-53.603-31.008-0.551c-28.374-0.505-31.608-0.729-38.056-2.643-25.421-7.542-42.553-23.872-50.868-48.486l-2.222-6.577-0.266-119.336c-0.233-104.422-0.085-120.232 1.181-126.507 1.945-9.645 4.536-15.784 10.519-24.927 9.477-14.483 24.172-24.857 42.596-30.069 5.825-1.648 13.819-1.728 172.895-1.728 188.131 0 170.536-0.704 187.46 7.502 15.295 7.416 26.124 18.38 33.425 33.843 6.869 14.548 6.599 8.482 6.305 141.887l-0.264 119.336-2.222 6.577c-8.31 24.599-25.272 40.781-50.868 48.529-6.961 2.107-7.857 2.14-72.975 2.643l-65.928 0.51-6.425 6.135c-36.274 34.63-112.971 106.043-115.272 107.329-3.501 1.957-6.601 2.036-10.654 0.274zM228.035 404.832c27.526-25.892 51.085-47.774 52.354-48.627 2.075-1.395 9.243-1.598 71.413-2.021l69.107-0.469 6.276-2.443c15.873-6.179 26.527-17.471 30.501-32.324 1.017-3.804 1.255-26.793 1.245-120.745-0.007-74.869-0.349-117.51-0.962-120.17-3.666-15.901-18.031-29.837-35.391-34.335-5.072-1.315-23.367-1.477-166.577-1.477s-161.505 0.162-166.577 1.477c-14.388 3.728-25.527 12.65-31.933 25.577l-3.985 8.041-0.291 117.528c-0.218 87.749-0.011 118.837 0.818 122.696 3.245 15.122 14.501 27.445 30.784 33.702l6.275 2.412 38.526 0.501c43.288 0.563 42.119 0.365 45.023 7.623 1.282 3.205 1.489 9.632 1.489 46.3 0 37.511 0.224 43.832 1.555 43.832 0.167 0 22.824-21.184 50.35-47.077zM217.893 303.179c-0.254-0.663-0.347-9.014-0.206-18.558l0.257-17.353 16.791-0.257c11.588-0.177 17.193 0.077 18.088 0.82 1.012 0.84 1.298 4.652 1.298 17.329 0 8.938-0.257 16.921-0.571 17.738-0.492 1.281-2.963 1.486-17.883 1.486-13.215 0-17.422-0.285-17.775-1.204zM225.491 241.223c-0.864-2.576-5.327-41.331-4.889-42.469 0.292-0.76 3.888-1.6 9.708-2.268 29.798-3.421 44.086-14.887 42.353-33.99-1.431-15.78-15.129-25.292-34.855-24.201-14.042 0.776-25.742 5.821-36.672 15.81-2.787 2.548-5.5 4.632-6.026 4.632-1.060 0-19.922-19.602-19.922-20.704 0-1.444 12.863-12.644 19.482-16.965 14.587-9.522 30.645-13.591 50.522-12.802 14.156 0.562 20.505 2.046 31.243 7.302 10.021 4.906 19.141 13.698 23.543 22.697 9.548 19.521 7.103 45.917-5.589 60.337-7.485 8.504-21.74 16.278-36.367 19.833-3.727 0.906-7.082 2.115-7.454 2.689s-1.312 5.481-2.087 10.907l-1.41 9.867-10.589 0.266c-7.969 0.2-10.689-0.032-10.993-0.94z"></path>
<path d="M156.362 490.67c-1.724-1.545-3.232-4.096-3.751-6.342-0.477-2.067-0.877-26.652-0.889-54.634-0.020-45.512-0.179-50.936-1.509-51.446-0.817-0.313-13.944-0.57-29.169-0.57-30.41 0-36.239-0.674-48.094-5.563-16.985-7.004-30.391-19.832-37.798-36.168-5.834-12.866-5.578-6.577-5.593-137.827-0.014-116.199 0.043-120.113 1.835-127.122 6.483-25.346 28.021-45.162 55.938-51.464 4.625-1.044 35.095-1.272 169.607-1.271l163.969 0.001 7.517 2.134c26.613 7.558 45.974 26.332 52.18 50.6 1.793 7.008 1.849 10.948 1.849 127.207 0 115.546-0.067 120.237-1.818 127.082-5.82 22.759-23.226 40.793-47.25 48.957l-8.72 2.964-64.836 0.233c-35.659 0.128-65.76 0.447-66.89 0.708s-28.615 25.466-61.077 56.014c-32.463 30.546-60.291 56.337-61.842 57.312-4.291 2.7-10.135 2.356-13.66-0.803zM229.603 403.981c28.057-26.36 51.923-48.135 53.034-48.389s32.255-0.582 69.206-0.731c61.897-0.248 67.592-0.404 72.353-1.972 8.149-2.685 15.959-7.231 21.181-12.329 5.908-5.769 8.88-10.382 11.806-18.325l2.25-6.106v-235.852l-2.192-6.344c-3.957-11.456-12.656-21.105-24.119-26.755-11.721-5.778-0.294-5.427-177.124-5.427-178.144 0-165.601-0.416-177.829 5.889-11.275 5.813-19.026 14.471-23.543 26.295l-2.063 5.402-0.266 114.638c-0.17 73.508 0.073 116.829 0.679 120.745 2.055 13.29 12.011 27.169 24.030 33.503 11.761 6.197 12.27 6.261 53.039 6.678 40.421 0.413 40.952 0.483 43.717 5.832 1.214 2.348 1.425 9.221 1.425 46.34 0 23.971 0.281 43.865 0.626 44.21s1.109 0.626 1.7 0.626c0.59 0 24.030-21.567 52.087-47.928zM218.413 285.591v-17.853h34.767v35.707h-34.767zM226.315 241.288c-1.354-2.191-5.695-42.189-4.666-42.994 0.546-0.428 4.438-1.052 8.649-1.387 20.209-1.612 34.767-8.696 40.176-19.55 3.346-6.714 3.435-16.909 0.207-23.839-5.5-11.811-20.911-18.152-37.607-15.472-12.635 2.028-22.528 6.863-32.745 16.004l-5.397 4.828-9.167-9.564c-5.042-5.261-9.301-10.137-9.464-10.839-0.435-1.871 8.514-10.088 17.76-16.306 8.494-5.713 19.841-10.389 30.094-12.402 9.619-1.888 29.030-1.404 37.952 0.946 21.712 5.72 36.32 19.251 41.371 38.319 1.919 7.245 1.908 23.485-0.022 30.771-4.853 18.329-19.886 31.286-43.627 37.606-4.871 1.297-9.239 2.741-9.708 3.209s-1.406 5.097-2.085 10.287c-0.679 5.19-1.514 9.891-1.858 10.448-0.874 1.415-18.986 1.353-19.863-0.066z"></path>
<path d="M159.685 491.973c-1.55-0.704-3.665-2.228-4.698-3.387-1.821-2.041-1.894-3.783-2.349-56.272l-0.47-54.167-30.538-0.507c-35.227-0.584-37.856-1.009-53.428-8.622-20.42-9.984-34.272-28.762-37.724-51.142-0.672-4.35-0.904-44.619-0.715-123.901 0.313-131.94-0.302-120.776 7.537-136.72 3.103-6.313 5.608-9.681 11.946-16.067 11.956-12.047 24.976-18.798 41.376-21.455 8.487-1.375 322.269-1.375 330.757 0 8.868 1.436 19.281 5.138 26.574 9.446 12.783 7.55 25.007 21.662 29.851 34.459 4.595 12.141 4.586 11.854 4.613 134.095 0.016 75.283-0.312 116.713-0.955 120.684-3.753 23.13-18.446 42.039-40.5 52.12-14.843 6.784-11.885 6.543-84.582 6.906l-65.47 0.327-59.504 55.955c-32.727 30.776-60.371 56.541-61.432 57.258-2.959 2-7.171 2.404-10.287 0.989zM229.574 404.862c28.091-26.392 52.109-48.38 53.375-48.862 1.342-0.51 29.81-0.875 68.289-0.875 73.291 0 71.255 0.154 83.567-6.315 11.372-5.976 19.652-15.724 23.253-27.376 1.793-5.8 1.846-9.339 1.846-123.23 0-114.784-0.040-117.388-1.888-123.371-4.744-15.358-18.113-27.724-34.766-32.155-7.734-2.059-326.734-2.067-334.466-0.010-16.774 4.464-30.029 16.715-34.801 32.164-1.849 5.984-1.888 8.587-1.888 123.372 0 113.892 0.053 117.43 1.846 123.23 3.595 11.632 11.904 21.426 23.167 27.31 11.121 5.81 10.704 5.759 52.208 6.327 36.897 0.505 38.316 0.592 40.875 2.491 4.75 3.525 4.89 4.993 4.947 51.828 0.049 40.856 0.153 43.459 1.708 43.459 0.911 0 24.638-21.594 52.728-47.987zM218.831 302.236c-0.255-0.664-0.347-8.592-0.206-17.618l0.258-16.411 33.357-0.513v35.75h-16.474c-12.552 0-16.584-0.288-16.937-1.207zM226.416 240.252c-0.303-0.898-5.183-39.943-5.183-41.469 0-0.177 3.277-0.609 7.282-0.962 28.43-2.5 43.857-12.977 45.121-30.643 1.233-17.227-10.538-28.904-30.117-29.876-16.703-0.829-31.202 4.723-44.647 17.099l-4.036 3.715-8.837-9.321c-4.861-5.126-8.858-10.019-8.884-10.872-0.049-1.629 7.489-8.541 15.458-14.173 12.518-8.848 27.273-13.74 43.883-14.55 35.502-1.731 61.050 14.503 66.996 42.572 2.697 12.734 1.123 26.731-4.234 37.641-5.887 11.988-22.324 23.254-40.4 27.69-4.393 1.078-8.49 2.446-9.105 3.041s-1.624 5.626-2.243 11.181l-1.125 10.101h-9.767c-6.976 0-9.881-0.335-10.163-1.174z"></path>
</svg>
