<!-- Generated by IcoMoon.io -->
<svg version="1.1" xmlns="http://www.w3.org/2000/svg" width="512" height="512" viewBox="0 0 512 512">
<title></title>
<g id="icomoon-ignore">
</g>
<path d="M238.672 493.507c-17.66-3.206-35.211-17.003-44.77-35.195-5.427-10.327-7.345-19.51-7.992-38.247-0.975-28.264-3.797-34.718-24.657-56.38-23.845-24.763-32.663-38.343-40.729-62.716-5.177-15.646-7.175-28.166-7.175-44.964 0-48.666 23.661-92.459 64.519-119.41 16.219-10.698 35.179-18.179 54.49-21.498 12.618-2.169 35.142-2.186 47.297-0.037 53.45 9.451 96.953 47.534 112.73 98.686 8.521 27.625 8.484 58.086-0.103 85.033-7.894 24.773-17.565 39.884-41.476 64.813-20.911 21.8-23.713 28.204-24.722 56.504-0.67 18.781-2.586 27.962-7.973 38.216-9.938 18.912-27.388 32.236-46.235 35.301-9.586 1.559-24.288 1.512-33.204-0.107zM268.13 450.553c6.8-3.398 11.406-8.502 13.46-14.916 0.811-2.532 1.55-10.687 1.836-20.25l0.478-16.012h-55.863l0.52 16.012c0.637 19.606 1.815 23.978 8.179 30.341 8.391 8.391 20.522 10.256 31.389 4.826zM303.376 352.323c1.524-2.033 8.803-9.903 16.176-17.49 15.486-15.935 20.997-23.291 27.058-36.111 7.313-15.471 8.916-23.147 8.916-42.716 0-20.214-1.647-27.652-9.818-44.341-10.027-20.479-24.882-35.334-45.361-45.361-16.689-8.172-24.127-9.819-44.341-9.819s-27.652 1.647-44.341 9.819c-20.479 10.028-35.334 24.881-45.361 45.361-8.268 16.885-9.832 24.077-9.753 44.833 0.077 20.176 1.519 27.070 8.858 42.315 6.238 12.961 11.629 20.173 26.554 35.528 7.112 7.316 14.381 15.187 16.153 17.49l3.222 4.188h89.268zM28.883 275.619c-17.191-7.446-17.056-32.054 0.215-39.269 5.253-2.195 34.716-2.195 39.97 0 17.384 7.262 17.384 32.048 0 39.31-5.178 2.163-35.167 2.132-40.184-0.041zM442.228 275.353c-4.24-1.926-9.892-7.702-11.389-11.638-0.505-1.33-0.92-4.846-0.92-7.813 0-8.682 5.010-16.204 13.024-19.551 5.743-2.399 35.298-2.154 40.677 0.338 16.747 7.754 16.31 31.864-0.707 38.972-5.69 2.377-35.269 2.154-40.685-0.308zM109.119 137.254c-5.192-2.571-25.547-23.194-27.497-27.861-5.748-13.757 4.686-29.273 19.685-29.273 7.205 0 10.995 2.325 22.847 14.019 12.405 12.239 15.089 16.558 15.089 24.278 0 15.249-16.513 25.575-30.124 18.838zM385.087 137.607c-10.87-5.72-15.365-18.050-10.356-28.399 2.508-5.181 23.161-25.613 27.886-27.587 7.341-3.067 16.86-1.302 22.747 4.218 6.351 5.956 8.336 16.527 4.566 24.316-2.508 5.181-23.161 25.613-27.886 27.587-4.615 1.929-13.166 1.861-16.957-0.134zM247.137 80.457c-4.584-2.412-8.449-6.364-10.449-10.682-1.55-3.348-1.825-6.463-1.825-20.692 0-18.513 0.863-22.133 6.484-27.178 7.076-6.352 22.241-6.352 29.316 0 5.62 5.046 6.484 8.665 6.484 27.178 0 14.099-0.284 17.376-1.795 20.701-1.926 4.24-7.702 9.892-11.638 11.389-3.754 1.427-13.287 1.016-16.577-0.716z"></path>
<path d="M240.324 493.414c-18.118-3.599-36.186-17.497-45.303-34.846-5.82-11.074-7.474-18.95-8.399-39.98-0.862-19.577-1.601-23.266-6.72-33.502-3.302-6.601-7.242-11.357-22.451-27.097-21.629-22.384-32.496-41.195-39.306-68.038-9.625-37.941-2.373-79.18 19.82-112.714 8.553-12.922 25.98-30.455 38.613-38.847 24.438-16.233 50.269-24.056 79.427-24.056 38.893 0 72.409 13.931 100.075 41.597 21.49 21.489 34.579 46.406 39.923 75.999 2.252 12.474 2.252 35.678 0 48.151-5.44 30.12-17.917 53.581-41.435 77.909-15.738 16.281-19.132 20.445-23.082 28.329-4.373 8.731-5.736 16.168-6.364 34.733-0.901 26.622-5.425 38.314-20.822 53.81-7.336 7.382-10.404 9.695-17.274 13.019-14.075 6.81-30.485 8.754-46.7 5.533zM267.887 451.727c7.060-3.34 12.563-9.288 14.608-15.788 0.9-2.861 1.604-10.649 1.902-21.046l0.474-16.505h-57.73l0.474 16.505c0.588 20.49 1.66 24.388 8.615 31.344 8.756 8.756 20.463 10.786 31.657 5.49zM303.796 353.322c1.355-2.018 8.912-10.329 16.795-18.469 15.853-16.37 20.813-23.026 27.106-36.357 7.203-15.264 8.796-22.985 8.765-42.49-0.031-19.541-1.658-27.43-8.765-42.49-5.687-12.052-11.271-20.066-20.202-28.996-12.363-12.363-26.702-20.732-44.884-26.197-8.067-2.424-10.382-2.672-25.619-2.742-19.782-0.090-28.606 1.677-43.417 8.693-12.133 5.748-20.129 11.319-29.056 20.246-8.931 8.931-14.514 16.946-20.202 28.996-7.16 15.172-8.776 22.978-8.798 42.49-0.023 19.507 1.576 27.229 8.791 42.49 6.306 13.341 11.268 19.994 27.113 36.357 7.882 8.14 15.44 16.451 16.794 18.469l2.464 3.669h90.652zM28.89 274.635c-7.649-3.317-11.84-9.998-11.815-18.837 0.020-7.13 2.761-12.329 8.699-16.503l4.264-2.997h38.090l4.273 3c13.272 9.318 11.39 29.225-3.346 35.382-5.163 2.158-35.163 2.124-40.164-0.045zM442.736 274.666c-13.664-6.051-16.344-24.674-4.933-34.277 4.894-4.118 8.871-4.762 27.262-4.412l16.916 0.321 4.26 2.997c6.014 4.231 8.679 9.361 8.679 16.71s-2.664 12.479-8.679 16.71l-4.26 2.997-17.901 0.24c-14.401 0.192-18.574-0.058-21.343-1.284zM109.115 136.266c-5.184-2.566-24.561-22.213-26.51-26.88-3.186-7.627-1.191-17.68 4.579-23.061 5.394-5.031 15.157-6.668 22.205-3.722 4.725 1.975 24.401 21.427 26.905 26.6 3.617 7.471 2.261 16.843-3.325 22.99-5.521 6.076-16.144 7.889-23.853 4.073zM385.087 136.619c-10.236-5.397-14.288-17.252-9.368-27.415 2.505-5.173 22.18-24.626 26.906-26.6 7.045-2.944 16.757-1.318 22.239 3.722 5.542 5.094 7.628 15.681 4.544 23.061-1.974 4.725-21.428 24.401-26.6 26.906-4.934 2.388-13.51 2.546-17.721 0.326zM252.065 81.167c-7.492-1.817-13.354-7.042-15.322-13.654-0.669-2.251-0.963-10.138-0.766-20.567l0.321-16.916 2.969-4.268c8.060-11.586 25.416-11.586 33.476 0l2.969 4.268 0.321 16.916c0.198 10.429-0.096 18.316-0.765 20.567-2.757 9.266-14.005 15.885-23.204 13.654z"></path>
<path d="M244.182 494.017c-22.402-4.824-40.541-18.67-49.758-37.981-4.858-10.181-6.029-16.348-6.915-36.463-0.883-20.053-1.608-23.606-7.102-34.81-2.508-5.115-6.384-9.857-17.454-21.356-20.573-21.368-30.044-34.79-37.537-53.192-7.986-19.613-11.411-39.285-10.469-60.123 1.585-35.043 14.927-66.348 38.939-91.365 20.61-21.472 44.852-34.959 74.345-41.361 14.325-3.109 41.025-3.098 55.551 0.022 56.514 12.141 98.642 54.264 110.849 110.84 2.908 13.474 3.142 40.1 0.469 53.359-4.241 21.042-13.698 42.725-25.587 58.664-3.436 4.606-12.442 14.805-20.014 22.663-21.302 22.108-23.872 27.919-25.052 56.658-0.49 11.942-1.348 20.836-2.368 24.562-6.123 22.37-22.861 39.861-45.38 47.423-8.583 2.882-24.84 4.111-32.517 2.459zM268.803 452.139c6.082-2.976 10.743-7.851 13.66-14.286 1.702-3.755 2.132-7.288 2.645-21.728 0.337-9.484 0.327-17.583-0.022-17.998s-13.678-0.637-29.619-0.493l-28.984 0.262 0.28 15.765c0.173 9.786 0.81 17.659 1.679 20.755 4.857 17.308 24.016 25.719 40.361 17.722zM304.899 352.815c2.334-2.845 10.253-11.387 17.598-18.982 19.183-19.836 26.921-32.44 32.281-52.586 2.166-8.141 2.531-11.633 2.591-24.751 0.058-12.971-0.277-16.6-2.228-24.075-14.765-56.573-70.394-89.634-125.74-74.728-36.409 9.805-64.222 39.016-73.062 76.73-2.845 12.138-2.417 34.304 0.902 46.824 5.344 20.154 13.15 32.879 32.27 52.599 7.356 7.587 15.28 16.123 17.609 18.968l4.235 5.173h89.299zM32.031 275.045c-5.798-1.296-12.414-7.711-13.976-13.55-2.224-8.318 0.477-16.057 7.465-21.387l3.703-2.824h39.721l3.703 2.824c10.222 7.797 11.135 21.099 2.048 29.839-3.151 3.031-5.559 4.368-9.314 5.173-6.074 1.303-27.404 1.255-33.349-0.074zM446.135 275.096c-8.21-1.849-15.161-10.592-15.208-19.129-0.029-5.223 3.466-11.904 8.196-15.671l3.784-3.013 18.557-0.305c17.012-0.28 18.881-0.14 22.45 1.681 16.481 8.408 13.372 32.305-4.746 36.48-5.349 1.233-27.499 1.203-33.033-0.043zM111.653 137.004c-2.357-0.719-7.391-4.975-15.902-13.448-11.719-11.666-12.525-12.717-13.652-17.822-2.289-10.368 3.023-19.902 12.923-23.19 9.767-3.244 15.347-0.549 30.065 14.528 10.061 10.306 11.071 11.683 12.173 16.609 1.672 7.472 0.105 12.916-5.266 18.286-5.775 5.775-12.475 7.434-20.343 5.036zM387.058 136.775c-7.288-2.578-13.327-11.319-13.275-19.212 0.034-5.217 4.085-11.413 14.059-21.503 5.529-5.594 11.829-11.114 13.996-12.265 4.526-2.404 13.317-2.791 17.257-0.76 7.472 3.852 12.688 13.286 11.335 20.5-1.204 6.42-4.069 10.401-15.437 21.458-13.711 13.336-18.197 15.227-27.936 11.782zM248.054 79.24c-5.379-2.443-9.946-8.192-11.216-14.118-0.567-2.643-1.031-9.861-1.031-16.040 0-14.085 1.196-19.796 5.149-24.591 10.721-13.007 31.069-7.53 34.246 9.216 1.306 6.887 1.291 25.276-0.026 31.416-1.921 8.96-10.317 15.941-19.169 15.941-2.168 0-5.746-0.82-7.952-1.822z"></path>
<path d="M245.167 494.014c-20.041-4.363-37.815-16.639-47.612-32.883-6.49-10.761-8.19-17.883-9.094-38.108-0.877-19.62-1.655-24.548-5.29-33.491-3.572-8.792-7.601-14.089-21.734-28.586-7.133-7.316-15.435-16.628-18.447-20.692-24.769-33.425-33.646-76.635-23.998-116.808 13.24-55.126 57.457-96.516 113.6-106.336 11.159-1.953 35.708-1.99 46.7-0.074 38.336 6.686 72.069 28.415 93.567 60.275 6.787 10.058 14.984 27.37 18.125 38.283 4.216 14.645 5.572 24.479 5.572 40.413 0 22.882-3.919 40.497-13.422 60.332-7.744 16.162-15.873 27.372-31.625 43.611-24.015 24.755-26.513 30.354-27.921 62.581-0.76 17.394-1.032 19.3-3.84 26.873-7.49 20.204-21.497 33.839-42.459 41.331-7.474 2.671-11.224 3.418-18.761 3.738-5.181 0.22-11.194 0.014-13.361-0.459zM268.324 453.135c4.699-2.386 11.579-9.123 13.894-13.604 2.265-4.384 2.626-7.341 3.309-27.1l0.519-15.026h-60.138l0.548 15.026c0.907 24.868 1.268 26.282 8.72 34.074 4.040 4.224 7.669 6.606 12.45 8.173 4.106 1.345 16.89 0.392 20.699-1.541zM299.568 358.363c1.198-0.321 4.064-3.082 6.369-6.135s10.253-11.782 17.663-19.397c18.3-18.808 25.192-29.788 31.041-49.449 3.686-12.39 4.404-34.064 1.58-47.693-4.231-20.425-13.025-36.537-28.201-51.672-20.48-20.425-43.414-29.969-72.015-29.969-27.529 0-51 9.449-70.785 28.496-13.58 13.075-22.14 27.198-27.929 46.085-2.478 8.086-2.655 9.887-2.677 27.377-0.023 17.676 0.128 19.212 2.686 27.492 6.275 20.31 12.413 30.005 31.501 49.754 7.539 7.8 15.284 16.377 17.21 19.058s4.429 5.25 5.562 5.708c2.311 0.935 84.591 1.26 87.993 0.347zM30.725 274.266c-7.275-2.2-12.681-9.881-12.681-18.015 0-8.214 3.792-14.101 11.331-17.592 3.314-1.535 6.472-1.828 19.841-1.846 15.47-0.023 16.040 0.052 21.113 2.702 14.579 7.617 12.761 29.142-2.918 34.55-3.783 1.305-32.517 1.463-36.685 0.202zM441.864 273.082c-9.029-4.469-12.676-16.288-8.005-25.94 4.132-8.536 9.332-10.359 29.464-10.33 12.856 0.017 16.017 0.32 19.313 1.846 7.488 3.467 11.331 9.382 11.331 17.442 0 5.613-1.858 10.032-5.768 13.723-4.857 4.585-8.024 5.238-25.763 5.32-14.779 0.067-16.651-0.12-20.573-2.062zM110.174 135.649c-4.416-2.304-23.985-21.944-26.289-26.383-2.781-5.359-2.17-13.688 1.4-19.083 4.9-7.404 16.258-10.313 24.189-6.192 4.565 2.371 24.053 22.053 26.326 26.588 2.446 4.878 1.646 13.511-1.724 18.601-4.732 7.15-16.498 10.334-23.904 6.47zM384.76 135.156c-5.87-2.905-9.302-8.338-9.824-15.553-0.562-7.763 0.937-10.33 13.452-23.049 12.606-12.811 15.997-14.836 23.885-14.265 13.583 0.982 21.887 15.304 15.763 27.186-2.361 4.581-23.358 25.357-27.041 26.758-4.467 1.698-11.583 1.227-16.234-1.075zM245.529 77.293c-7.5-4.757-8.738-8.722-8.738-28.008 0-15.191 0.136-16.343 2.464-20.949 5.945-11.76 18.949-14.619 28.45-6.256 6.911 6.082 7.746 9.396 7.353 29.177-0.325 16.408-0.382 16.792-3.055 20.646-5.955 8.586-17.673 10.972-26.476 5.388z"></path>
<path d="M247.137 494.378c-25.472-6.166-41.949-18.317-51.996-38.348-4.804-9.576-5.819-14.82-6.679-34.488-0.904-20.657-1.913-25.654-7.436-36.837-2.948-5.969-6.274-10.060-18.501-22.759-8.199-8.515-17.462-19.043-20.584-23.396-11.060-15.416-19.805-35.259-24.013-54.491-2.612-11.939-2.612-44.173 0-56.112 13.036-59.577 59.599-102.928 119.698-111.445 10.587-1.501 36.563-0.622 46.445 1.57 49.955 11.085 89.341 45.692 104.878 92.155 5.325 15.922 6.524 22.696 7.148 40.357 0.705 19.977-0.983 32.541-6.683 49.732-7.731 23.317-17.211 37.964-39.798 61.49-22.159 23.080-24.868 29.325-26.132 60.228-0.817 19.976-1.805 24.672-7.469 35.472-8.846 16.873-22.76 28.209-42.271 34.441-6.656 2.127-22.048 3.531-26.605 2.428zM269.111 452.525c6.846-3.421 10.377-7.127 13.555-14.23 1.904-4.255 2.296-7.33 2.875-22.558 0.538-14.147 0.412-17.794-0.639-18.461-1.731-1.098-56.1-1.076-57.834 0.022-1.079 0.683-1.268 4.248-0.951 17.968 0.366 15.832 0.584 17.52 2.913 22.534 3.564 7.671 6.95 11.265 13.869 14.723 5.045 2.521 7.186 3.013 13.106 3.013s8.060-0.493 13.106-3.013zM304.445 354.293c2.055-2.574 9.959-11.11 17.565-18.968 14.836-15.33 21.014-23.692 27.076-36.644 17.731-37.889 9.914-83.48-19.532-113.912-40.071-41.413-106.595-41.508-146.954-0.209-29.776 30.469-37.48 76.506-19.244 115.003 6.126 12.931 11.623 20.313 26.63 35.762 7.107 7.316 14.823 15.63 17.147 18.476l4.226 5.173h89.352zM28.902 273.002c-2.387-1.219-5.668-3.887-7.291-5.927-5.87-7.38-4.331-19.252 3.331-25.701 4.723-3.974 9.59-4.785 26.526-4.421 17.277 0.371 19.45 1.069 25.099 8.058 2.799 3.464 3.061 4.401 3.061 10.994 0 6.556-0.272 7.549-3.013 10.993-1.657 2.082-4.966 4.784-7.353 6.003-3.968 2.027-5.696 2.217-20.18 2.217s-16.212-0.19-20.18-2.217zM443.214 273.382c-14.489-6.582-15.264-25.938-1.365-34.127 2.877-1.695 5.491-2.017 18.694-2.3 9.253-0.198 16.965 0.105 19.416 0.765 17.035 4.587 18.808 28.194 2.677 35.639-5.767 2.661-33.58 2.678-39.423 0.026zM110.174 135.383c-5.099-2.386-24.584-22.117-26.566-26.903-6.404-15.465 9.407-31.278 24.873-24.873 4.786 1.982 24.517 21.466 26.903 26.566 3.555 7.6 1.948 15.979-4.194 21.864-5.81 5.566-13.614 6.809-21.016 3.346zM386.072 135.87c-3.71-1.661-8.911-7.089-10.286-10.734-1.579-4.187-1.221-10.554 0.841-14.963 2.385-5.099 22.117-24.584 26.903-26.566 15.465-6.404 31.277 9.407 24.873 24.873-1.982 4.786-21.466 24.517-26.565 26.903-4.602 2.153-11.563 2.368-15.765 0.487zM248.124 78.724c-1.625-0.725-4.152-2.593-5.613-4.149-4.95-5.27-5.72-8.748-5.696-25.707 0.025-17.61 1.042-21.43 6.982-26.199 1.839-1.476 3.997-3.232 4.797-3.901 2.093-1.751 12.944-1.564 15.205 0.262 6.057 4.889 9.348 8.823 10.324 12.338 1.382 4.978 1.421 30.308 0.055 35.231-1.286 4.631-6.275 10.43-10.486 12.191-4.031 1.684-11.719 1.652-15.566-0.065z"></path>
<path d="M247.631 494.336c-1.897-0.236-4.335-0.814-5.419-1.283s-4.852-1.835-8.375-3.035c-20.219-6.885-35.879-23.083-42.387-43.841-1.737-5.539-2.31-10.582-2.908-25.619-1.196-30.053-4.284-36.818-28.064-61.502-20.981-21.778-30.71-36.94-37.981-59.19-5.106-15.626-6.371-24.333-6.371-43.861 0-26.216 3.767-42.048 15.37-64.596 19.677-38.236 54.144-63.983 98.423-73.524 11.583-2.496 40.254-2.503 52.2-0.014 27.372 5.705 51.454 18.139 70.622 36.463 11.899 11.376 20.378 22.694 27.774 37.073 10.373 20.167 14.623 36.326 15.564 59.177 1.005 24.41-3.003 43.997-13.466 65.786-8.060 16.787-13.944 24.859-31.178 42.771-16.305 16.946-20.5 22.898-24.545 34.82-2.376 7.003-2.75 9.942-3.386 26.595-0.636 16.649-1.011 19.594-3.386 26.605-3.617 10.673-7.553 17.253-15.121 25.276-7.859 8.33-16.049 13.779-25.779 17.149-4.094 1.418-8.221 2.988-9.173 3.49-1.978 1.043-17.256 1.901-22.412 1.259zM268.974 453.023c5.993-2.911 11.572-8.75 14.43-15.101 1.723-3.829 2.146-7.305 2.652-21.798 0.353-10.087 0.224-17.755-0.31-18.476-0.695-0.937-7.822-1.231-29.74-1.231s-29.046 0.295-29.739 1.231c-0.534 0.721-0.663 8.389-0.31 18.476 0.504 14.399 0.936 17.983 2.621 21.728 7.186 15.968 24.99 22.654 40.397 15.171zM301.939 357.743c0.812-0.678 2.752-3.005 4.31-5.173s8.672-9.927 15.808-17.243c7.135-7.316 14.967-16.029 17.403-19.361 14.776-20.212 21.959-48.481 18.491-72.769-3.317-23.24-13.613-44.049-29.618-59.864-34.684-34.273-87.618-39.79-128.146-13.358-15.701 10.24-28.196 24.231-36.157 40.487-14.097 28.785-14.466 59.647-1.068 89.212 4.893 10.796 11.786 19.928 26.546 35.161 7.875 8.129 15.376 16.332 16.668 18.229 4.247 6.238 1.493 5.912 49.831 5.912 34.121 0 44.8-0.286 45.933-1.231zM31.839 274.062c-12.38-3.518-17.622-18.178-10.238-28.631 4.732-6.698 8.59-8.054 24.154-8.485 20.725-0.575 28.38 2.033 32.481 11.061 4.932 10.86-0.811 22.958-12.403 26.124-4.846 1.324-29.267 1.273-33.995-0.070zM445.945 274.26c-7.649-1.817-14.011-10.105-14.011-18.255 0-5.34 2.975-11.512 7.045-14.617 4.906-3.742 11.89-4.872 27.277-4.414 15.51 0.462 19.339 1.738 23.837 7.948 7.727 10.666 2.341 25.998-10.245 29.168-4.952 1.247-28.863 1.368-33.902 0.171zM111.653 136.107c-2.429-0.694-6.971-4.528-15.362-12.967-10.032-10.090-12.11-12.707-13.158-16.57-4.13-15.228 9.843-28.406 24.374-22.986 3.522 1.314 7.376 4.484 16.015 13.174 13.527 13.607 15.35 17.468 12.721 26.933-2.819 10.151-13.55 15.57-24.591 12.417zM386.031 135.479c-7.332-3.443-12.019-11.466-11.024-18.876 0.882-6.577 3.668-10.591 14.904-21.476 8.935-8.655 11.913-10.943 15.582-11.971 15.113-4.231 28.37 9.853 22.92 24.349-1.258 3.344-4.521 7.477-11.696 14.806-5.474 5.592-11.385 11.054-13.136 12.14-4.647 2.879-12.613 3.346-17.549 1.029zM248.009 78.235c-9.081-4.123-11.56-11.243-11.065-31.773 0.401-16.656 1.602-19.951 9.275-25.463 4.036-2.899 5.608-3.441 9.858-3.399 4.149 0.041 5.906 0.66 9.786 3.448 7.55 5.425 8.77 8.785 9.206 25.35 0.413 15.709-0.567 21.535-4.49 26.685-3.065 4.022-9.255 6.993-14.574 6.993-2.168 0-5.767-0.829-7.997-1.841z"></path>
<path d="M247.631 493.967c-2.439-0.379-3.768-0.781-2.956-0.892s-1.751-1.049-5.7-2.082c-17.988-4.713-33.377-16.981-42.001-33.483-5.622-10.757-6.611-15.491-7.509-35.966-1.358-30.93-4.594-38.052-28.669-63.115-15.236-15.861-23.185-26.303-29.228-38.397-10.528-21.070-15.094-40.453-15.11-64.156-0.011-15.992 2.036-28.778 7.019-43.839 6.694-20.23 16.968-37.345 31.503-52.479 27.244-28.368 61.592-42.981 101.026-42.981 16.964 0 28.646 1.833 43.968 6.9 21.77 7.199 37.932 17.237 54.627 33.933s26.734 32.857 33.933 54.626c5.067 15.322 6.899 27.003 6.899 43.968s-1.833 28.645-6.899 43.967c-7.565 22.878-16.239 36.544-36.575 57.628-15.651 16.226-19.323 20.959-23.476 30.257-4.24 9.491-5.13 14.594-5.966 34.18-0.856 20.067-1.82 24.58-7.682 35.966-4.899 9.514-17.847 22.424-27.51 27.428-3.911 2.026-10.339 4.529-14.288 5.563s-6.513 1.964-5.7 2.066c2.3 0.289-7.955 1.728-11.824 1.659-1.897-0.034-5.444-0.372-7.882-0.75zM268.815 453.687c7.226-3.466 11.45-7.77 14.62-14.899 2.175-4.892 2.472-7.216 3.043-23.895l0.633-18.476h-62.255l0.652 18.476c0.588 16.662 0.888 19.007 3.065 23.895 4.976 11.175 15.121 17.735 27.433 17.735 5.572 0 8.034-0.545 12.81-2.836zM301.012 359.151c0.908-0.368 3.312-2.887 5.342-5.596s9.733-11.135 17.118-18.722c14.922-15.332 19.942-22.106 26.193-35.351 7.373-15.623 8.808-22.834 8.757-43.969-0.042-16.911-0.238-18.87-2.716-27.097-10.772-35.766-36.133-61.121-72.111-72.094-8.339-2.542-9.986-2.704-27.59-2.704s-19.251 0.161-27.59 2.704c-30.135 9.191-52.243 27.819-65.51 55.203-7.797 16.091-9.344 23.441-9.362 44.481-0.017 20.596 1.482 28.007 8.793 43.476 6.278 13.281 11.3 20.093 25.704 34.859 7.136 7.316 14.867 15.741 17.179 18.722s4.929 5.721 5.816 6.089c0.887 0.368 21.123 0.67 44.968 0.67s44.099-0.301 45.007-0.67zM29.262 272.349c-8.914-4.048-12.93-15.569-8.472-24.304 4.506-8.829 8.53-10.275 28.508-10.248 17.882 0.025 21.664 1.085 26.504 7.431 2.52 3.304 2.841 4.523 2.841 10.776s-0.322 7.473-2.841 10.776c-4.86 6.373-8.6 7.409-26.719 7.409-13.294 0-16.401-0.288-19.821-1.841zM443.108 272.349c-2.231-1.013-5.334-3.518-6.897-5.567-2.52-3.304-2.841-4.523-2.841-10.776s0.322-7.472 2.841-10.776c4.84-6.345 8.623-7.406 26.504-7.431 19.858-0.028 24.014 1.441 28.402 10.039 3.423 6.706 1.689 16.778-3.731 21.679-4.329 3.914-8.553 4.719-24.671 4.697-13.053-0.017-16.202-0.317-19.606-1.863zM110.095 134.293c-5.174-2.561-23.573-21.231-25.523-25.9-6.559-15.697 9.349-30.738 24.665-23.323 5.794 2.805 24.424 22.105 26.028 26.966 5.19 15.728-10.439 29.549-25.169 22.257zM386.072 134.736c-9.21-4.79-12.779-14.37-8.851-23.768 1.974-4.725 20.45-23.427 25.613-25.926 6.587-3.189 15.215-2.031 20.504 2.752 5.185 4.689 6.981 13.709 4.103 20.6-1.974 4.725-20.45 23.427-25.613 25.926-4.858 2.351-11.687 2.532-15.755 0.416zM248.126 77.638c-8.876-4.794-10.3-8.7-10.327-28.341-0.017-11.846 0.341-16.421 1.504-19.201 1.897-4.54 4.716-7.6 8.413-9.131 1.565-0.648 2.639-1.514 2.386-1.924-0.638-1.034 5.233-1.848 9.097-1.261 1.755 0.267 2.981 0.827 2.723 1.245s0.81 1.291 2.377 1.939c3.697 1.532 6.516 4.591 8.413 9.132 1.161 2.78 1.519 7.355 1.504 19.2-0.026 17.852-1.088 21.666-7.38 26.465-4.598 3.507-13.953 4.445-18.708 1.877z"></path>
</svg>
