<!-- Generated by IcoMoon.io -->
<svg version="1.1" xmlns="http://www.w3.org/2000/svg" width="512" height="512" viewBox="0 0 512 512">
<title></title>
<g id="icomoon-ignore">
</g>
<path d="M144.827 133.978c1.304-2.786 17.791-19.934 50.072-52.084 51.947-51.734 50.030-50.163 61.236-50.176 10.793-0.012 10.23-0.477 61.492 50.639 31.798 31.706 48.252 48.847 49.553 51.621 2.346 5.001 2.666 16.631 0.594 21.577-2.148 5.125-6.894 10.183-11.535 12.291-5.278 2.398-16.752 2.583-22.139 0.356-2.52-1.042-12.419-10.138-28.518-26.207l-24.658-24.612v171.375c0 192.361 0.627 177.375-7.755 185.101-6.9 6.36-16.849 8.12-26.779 4.736-5.849-1.993-12.609-8.959-14.178-14.61-0.769-2.769-1.113-56.8-1.117-175.303l-0.006-171.3-24.658 24.612c-16.099 16.069-25.998 25.166-28.518 26.207-4.768 1.97-16.337 2.079-20.832 0.195-5.125-2.148-10.183-6.894-12.291-11.535-2.601-5.726-2.582-17.286 0.037-22.884z"></path>
</svg>
